-5.9114
-8.4059
-11.8919
-16.4689
-2.9485
-4.2514
-5.9174
-8.3223
-11.9810
-16.9074
-24.4232
-33.6129
-3.3164
-4.8154
-6.9310
-10.8500
-3.3143
-5.8791
-10.5674
-22.0259
-8.9093
-11.6569
-15.9582
-22.7533
-14.7350
-15.1844
-24.0349
-43.8052
-9.0744
-15.6618
-24.7334
-37.2227
-6.8983
-11.0248
-19.7971
-52.4217
-4.5014
-8.7489
-16.3312
-26.8456
-6.7389
-10.2600
-18.7172
-39.5259
-15.8548
-26.7722
-29.4416
-29.5786
-21.8532
-24.9364
-29.3612
-30.2339
-18.9469
-28.3738
-37.9561
-53.5985
-125.8345
-152.3350
-195.1836
-159.5033
-33.1341
-65.8253
-99.4022
-126.7331
-31.4907
-41.0441
-61.9100
-82.0241
-7.0270
-9.8021
-13.8063
-19.4419
-3.4560
-4.9093
-6.9676
-9.8702
-14.0855
-20.1653
-28.3921
-39.3910
-4.1295
-5.9383
-8.8039
-13.8794
-3.8309
-6.8115
-12.3317
-25.6330
-13.2670
-17.2596
-22.4083
-31.3848
-12.7713
-16.9738
-21.8669
-46.0505
-8.0951
-13.9804
-22.0928
-33.7808
-7.3970
-10.7095
-20.6785
-65.5231
-4.4565
-8.8012
-16.6261
-29.5541
-11.2780
-20.6173
-47.9694
-90.0251
-17.9355
-59.7008
-57.3708
-133.1963
-23.4008
-33.6238
-43.7913
-76.9635
-15.5444
-21.2034
-30.8468
-38.1005
-98.9818
-105.7606
-127.8680
-143.2189
-37.8263
-74.2897
-113.4674
-139.8972
-22.2952
-30.6421
-45.3796
-61.3028
-6.7284
-9.4872
-13.5592
-18.7316
-3.3886
-4.8094
-6.7981
-9.5432
-13.5831
-19.4858
-27.2672
-38.8817
-4.5969
-6.6166
-10.0119
-15.6152
-3.6952
-6.5735
-11.7393
-23.0775
-10.1763
-13.5193
-17.8679
-25.5280
-15.3700
-21.1293
-32.4227
-55.5666
-8.4688
-14.6471
-23.1078
-34.7548
-5.6519
-8.5012
-17.3178
-58.8357
-3.7592
-7.6346
-15.6354
-32.3299
-12.2853
-21.8247
-41.8978
-80.2046
-17.0585
-58.2753
-47.8388
-164.6001
-21.7886
-18.3246
-63.2770
-83.3453
-14.5116
-21.8511
-32.3046
-43.8417
-64.2459
-61.4906
-81.0619
-106.5818
-35.7624
-71.0011
-107.2457
-137.3140
-27.9432
-36.8737
-59.3248
-73.7586
-6.8889
-9.7030
-13.7166
-19.5667
-3.5003
-5.0032
-6.9853
-11.1004
-14.1416
-20.1370
-27.4209
-38.5979
-5.7243
-8.2212
-12.3816
-19.6220
-3.9088
-7.4026
-15.5606
-35.0618
-14.0317
-17.5120
-24.2420
-35.7768
-14.2865
-18.9246
-39.1493
-64.3425
-7.0809
-12.2085
-19.4549
-30.6717
-7.3092
-11.6838
-33.3925
-81.7508
-4.2836
-8.5008
-16.6290
-32.7791
-16.0708
-25.9998
-52.3346
-111.5182
-27.1408
-23.1375
-49.1948
-117.0511
-22.8014
-32.4197
-46.3343
-85.3510
-12.1179
-20.9925
-24.8177
-40.5638
-140.2005
-173.0515
-118.0588
-155.0033
-38.1532
-72.8726
-114.4580
-135.0216
-30.8387
-49.9802
-58.7417
-99.9504
-7.0066
-10.1214
-13.8325
-19.9816
-3.6260
-5.1183
-7.1952
-11.3340
-14.6949
-19.2107
-26.9851
-36.8718
-3.8251
-5.5817
-8.2407
-12.8100
-4.2103
-7.6944
-16.2707
-39.9766
-12.5103
-16.5232
-23.7311
-36.6425
-12.6285
-23.1446
-39.4390
-61.5901
-9.1500
-16.1454
-27.9445
-50.0652
-8.1695
-15.5241
-39.2331
-108.9023
-5.8633
-10.8223
-20.4980
-37.5165
-8.1104
-12.1206
-19.6367
-36.3985
-24.5044
-28.2766
-59.3973
-44.6142
-8.1037
-21.2277
-47.0155
-54.3509
-26.0200
-43.2163
-57.5550
-87.3378
-161.3276
-172.1518
-148.6370
-129.1635
-44.1200
-81.7696
-132.3196
-140.3407
-39.4976
-54.4606
-70.3538
-109.0202
-5.3569
-7.6547
-10.8418
-15.3632
-2.8180
-4.0181
-5.7344
-8.1939
-10.7838
-15.3494
-21.1425
-30.2476
-3.5071
-5.0374
-7.2549
-9.8763
-3.3613
-5.9941
-10.8350
-21.4600
-9.0935
-12.3065
-16.5823
-24.5104
-10.8313
-13.0818
-23.6197
-33.6885
-10.4840
-18.1174
-28.4307
-42.5535
-6.7342
-10.9519
-20.1789
-54.4496
-4.2354
-8.4232
-15.1065
-26.2578
-7.0023
-10.7633
-18.5275
-42.6953
-19.2159
-23.2789
-26.4763
-40.4972
-9.3547
-19.6875
-30.5573
-44.0580
-18.8281
-30.9382
-47.2187
-66.9788
-104.0389
-91.4861
-67.9056
-78.5695
-30.6129
-61.0785
-91.6855
-118.7326
-39.6749
-52.9528
-77.7036
-105.8753
-5.8493
-8.3961
-11.9152
-16.6123
-2.9706
-4.2657
-6.0335
-8.5175
-12.1177
-17.1431
-23.9916
-33.6465
-4.0048
-5.6428
-8.2470
-12.1362
-3.3480
-5.9495
-10.6448
-20.5453
-8.1663
-10.5668
-14.8537
-21.3568
-10.5814
-19.6327
-27.9143
-44.8753
-8.8825
-15.3407
-24.3485
-37.9726
-5.7339
-8.9794
-17.0788
-51.7503
-3.8168
-7.8048
-15.4467
-28.0840
-10.4183
-17.9038
-33.6324
-63.5319
-18.6146
-23.7995
-30.4620
-55.8361
-16.3309
-27.1386
-42.1353
-54.8458
-17.4348
-31.8578
-42.3057
-60.2341
-91.3001
-101.6756
-118.4339
-113.1260
-33.6528
-66.7412
-100.9377
-128.7166
-26.1976
-33.8651
-54.5642
-67.7301
-6.0000
-8.3091
-11.9641
-16.4872
-3.0409
-4.2710
-6.0602
-8.4603
-12.2126
-16.3987
-23.2798
-32.8954
-3.3767
-4.8520
-6.9847
-10.0499
-3.4207
-6.0919
-11.2437
-24.9316
-10.7859
-16.2688
-21.4176
-29.6151
-10.8827
-18.6536
-27.4069
-49.9280
-10.2221
-17.5666
-28.0187
-45.0213
-6.6353
-10.6911
-21.8601
-66.5028
-4.6985
-9.2150
-16.6925
-29.0005
-7.2935
-11.6631
-15.9441
-29.6417
-20.5132
-25.3957
-33.8750
-69.2874
-21.2086
-21.9169
-30.0212
-52.9476
-25.5357
-38.5131
-54.4913
-83.5758
-116.8571
-93.0288
-76.4840
-85.8984
-34.2972
-68.0607
-102.6431
-128.1145
-46.2056
-61.1152
-84.3199
-122.2281
-5.6874
-8.0682
-11.3170
-15.9452
-2.8398
-4.0443
-5.7558
-8.1557
-11.7362
-16.8190
-23.0532
-32.8732
-4.1409
-6.0190
-8.8957
-13.0034
-3.1296
-5.5550
-9.8884
-19.4459
-8.4272
-10.4742
-15.4051
-21.7224
-12.1544
-17.2764
-30.4641
-41.8093
-8.3393
-14.5425
-23.5860
-37.5540
-5.4923
-8.3058
-14.9708
-49.5636
-3.5271
-7.1332
-14.0787
-27.7231
-9.4410
-15.8945
-31.5551
-57.6656
-15.1313
-22.3838
-31.1501
-54.5638
-16.7004
-25.7078
-35.6773
-34.1291
-16.7418
-30.6880
-44.3059
-60.4484
-106.8147
-111.5386
-125.6109
-129.1814
-30.8929
-61.6723
-92.6321
-118.9654
-44.4908
-56.0852
-88.0122
-112.0882
-5.8974
-8.5546
-11.7784
-16.1241
-3.0027
-4.3346
-5.9005
-8.4276
-12.2355
-18.1523
-23.6664
-32.6260
-4.6536
-6.6227
-9.5972
-14.0918
-3.3797
-5.9839
-11.3407
-27.4294
-12.7485
-17.3713
-24.3589
-33.0864
-12.9690
-24.5541
-40.2899
-59.6674
-7.6004
-13.1768
-21.2382
-34.2386
-6.1029
-9.5898
-22.7643
-69.9007
-3.9537
-7.6777
-15.7070
-26.8652
-10.4650
-18.1809
-35.5681
-66.7924
-16.8169
-28.6143
-42.0863
-55.1257
-17.5972
-23.3825
-52.5403
-52.5092
-18.9730
-30.7025
-45.8103
-64.5581
-139.8018
-157.2923
-131.7357
-156.2539
-33.2769
-66.1684
-99.8004
-116.8067
-55.3812
-72.3315
-84.0049
-144.5647
-9.3835
-13.0435
-17.7315
-25.4520
-4.7766
-6.7926
-9.6770
-14.3221
-19.5040
-26.3968
-35.7832
-49.2433
-3.7487
-5.3871
-7.9377
-12.4012
-5.2846
-9.9578
-23.4739
-59.5130
-17.3492
-25.0395
-33.9480
-50.2571
-22.1038
-29.9863
-62.4139
-90.9315
-9.4188
-16.3111
-26.2925
-42.6753
-8.4670
-16.9607
-49.9302
-138.7923
-5.6231
-10.8305
-20.6917
-52.2558
-8.8685
-14.0166
-27.4114
-60.0473
-34.3448
-22.8555
-37.6285
-39.9640
-14.8757
-46.0319
-46.2172
-66.3732
-21.7578
-36.5603
-54.4201
-65.9895
-144.4836
-160.1519
-204.7792
-217.6670
-51.9350
-88.9165
-155.7936
-139.6512
-55.9100
-76.8116
-87.6614
-152.6597
-4.9327
-7.0667
-10.0779
-14.0206
-2.5504
-3.7034
-5.1687
-7.3301
-10.0736
-14.2360
-20.6224
-29.0773
-3.9247
-5.6351
-8.1736
-11.9621
-2.8829
-5.1655
-9.3709
-17.7112
-9.0461
-11.6772
-14.4222
-21.2029
-11.0008
-18.5994
-25.5531
-36.0536
-10.9814
-19.0692
-30.1318
-45.1887
-5.5964
-8.3213
-14.5623
-39.0840
-3.2424
-6.6729
-12.6753
-23.6427
-9.3012
-18.2476
-39.5856
-68.6891
-10.4900
-24.5191
-55.6270
-111.4399
-9.7107
-19.8835
-33.7698
-24.6161
-16.6848
-25.5046
-33.9356
-52.4290
-84.8192
-79.1474
-71.3336
-80.6972
-26.9218
-54.0308
-80.5713
-107.4018
-41.6003
-52.5522
-88.9308
-105.0998
-5.8740
-8.4149
-11.7653
-16.5042
-3.0254
-4.2033
-6.0678
-8.5435
-11.8625
-16.8627
-23.4297
-33.7773
-3.1154
-4.4811
-6.3589
-9.3438
-3.4589
-6.1547
-11.0650
-22.4808
-8.4842
-11.5417
-16.1058
-24.1584
-7.6604
-11.5860
-20.9210
-37.9662
-9.5573
-16.1107
-24.5783
-37.3934
-8.0725
-12.5621
-21.4956
-62.0143
-5.3150
-10.0858
-17.2887
-29.7283
-5.4366
-8.7313
-13.6341
-24.4792
-14.9799
-33.2954
-21.9577
-28.5257
-11.0968
-19.1576
-23.7215
-43.4457
-23.5260
-35.1314
-46.1993
-69.9936
-80.5050
-78.8609
-90.3089
-121.6395
-34.9308
-69.7234
-104.7015
-134.6894
-31.3478
-42.0440
-65.4874
-84.0686
-6.2143
-8.8413
-12.3886
-17.2353
-3.1352
-4.4807
-6.2831
-8.7919
-12.4068
-18.4836
-25.0873
-34.5165
-3.4562
-4.9130
-7.0192
-10.1701
-3.5868
-6.3539
-11.4679
-25.3274
-12.8110
-16.3205
-22.5868
-31.4729
-9.8099
-20.7280
-35.3793
-59.3736
-7.8152
-13.4367
-21.7115
-36.4749
-7.5834
-11.7517
-22.7650
-71.2886
-4.8070
-9.2787
-16.9555
-30.8049
-7.3064
-11.6782
-20.6020
-39.2458
-11.3322
-14.5235
-26.9572
-47.3858
-10.7327
-26.1804
-31.0278
-51.7011
-24.0065
-37.7784
-50.1689
-77.6425
-116.6748
-116.9297
-102.8939
-122.8340
-36.3090
-72.0023
-108.8615
-134.3535
-38.7891
-49.6070
-80.5134
-99.1512
-9.6006
-13.8147
-20.4740
-31.9124
-5.0385
-7.4110
-11.8741
-20.1712
-18.8626
-26.3391
-37.5324
-52.2061
-7.1104
-11.0446
-17.2982
-26.8139
-6.0204
-13.4734
-31.5992
-71.7539
-18.8686
-25.7808
-36.4758
-54.1242
-21.9551
-34.5820
-53.2838
-83.3355
-9.1731
-16.2258
-27.3350
-46.0071
-11.0495
-24.9265
-62.7524
-161.4514
-5.7314
-10.5574
-27.2064
-48.3505
-15.9150
-31.7844
-61.9809
-117.6606
-23.6527
-40.8664
-58.9491
-92.5101
-21.2114
-39.4639
-68.6125
-87.9005
-18.1223
-47.9725
-48.8509
-57.4751
-194.8534
-218.8660
-269.4877
-197.0345
-56.0848
-89.7876
-168.2491
-155.6843
-47.6108
-88.7509
-81.2228
-177.4156
-5.6323
-8.0459
-11.2899
-16.1469
-2.7902
-4.0151
-5.6884
-8.0256
-11.5182
-16.5953
-22.8373
-33.0660
-4.1119
-5.8731
-8.4519
-12.3927
-3.1180
-5.5544
-9.9599
-18.3043
-9.6056
-11.4377
-15.1616
-20.4048
-10.1026
-16.9741
-28.7415
-44.0840
-8.7559
-15.0621
-23.5435
-35.0268
-6.4283
-9.5272
-14.6721
-38.8785
-3.8885
-7.7581
-14.4376
-25.9679
-10.7973
-20.3154
-49.1302
-74.8969
-13.4541
-19.4782
-36.0557
-49.4929
-17.8578
-24.1215
-38.0242
-27.8748
-17.0405
-22.3388
-28.1437
-39.0566
-77.4192
-96.4507
-121.1396
-139.8655
-30.5333
-61.0391
-91.5469
-121.5246
-26.1885
-33.9824
-56.2728
-67.9614
-11.0304
-15.8053
-21.3593
-32.8576
-5.6770
-8.1393
-12.0267
-19.7472
-22.5046
-30.8765
-40.7997
-56.2221
-4.8440
-7.0232
-10.5367
-16.8085
-6.3423
-12.9321
-32.8636
-80.3201
-23.0705
-29.1488
-42.0738
-63.1677
-28.3222
-62.6559
-85.6386
-93.9277
-7.4684
-12.9234
-20.9223
-34.2109
-9.5984
-23.2587
-66.6029
-182.4017
-5.8080
-10.9909
-25.0411
-62.1404
-12.3234
-25.4783
-48.8527
-90.5452
-16.0318
-47.5806
-39.4712
-94.8705
-20.2672
-42.5430
-59.8926
-84.3128
-21.7186
-35.5908
-40.2273
-65.8257
-121.5686
-121.5742
-149.1354
-141.7020
-62.0226
-94.2623
-186.0657
-135.5702
-69.1277
-97.6089
-93.8459
-195.4776
-7.5762
-10.7316
-14.7941
-21.2033
-3.9162
-5.4538
-7.6710
-11.2726
-15.2333
-21.5815
-30.2792
-41.9393
-4.4940
-6.3832
-9.1730
-13.5834
-4.4395
-7.8621
-15.7781
-39.5889
-19.3389
-23.0660
-30.2424
-45.5261
-16.5827
-29.0988
-47.4783
-73.5276
-7.5597
-13.3799
-22.5978
-37.9272
-8.5904
-14.3903
-35.5220
-103.5753
-5.4725
-10.4577
-20.1595
-37.0620
-8.3280
-13.2630
-25.3829
-52.2357
-32.5461
-23.4466
-37.5629
-80.0598
-21.6289
-20.8456
-41.2414
-51.4513
-22.5209
-39.2900
-51.3675
-85.2086
-116.8986
-101.6279
-81.1997
-84.7029
-44.7568
-85.5456
-134.2518
-152.4840
-34.6353
-45.5480
-64.4148
-91.0682
-5.7336
-7.9455
-11.4680
-16.4511
-2.8555
-4.0492
-5.9204
-8.3436
-11.4527
-16.1657
-22.5317
-31.1545
-3.5576
-5.0950
-6.8239
-11.1133
-3.1951
-6.0940
-12.6745
-27.4227
-7.1493
-11.3562
-15.0085
-23.4690
-12.0308
-17.5068
-28.2571
-45.7039
-9.5300
-16.5240
-26.9269
-45.9881
-6.5815
-13.0909
-29.7516
-71.8786
-4.0791
-8.1412
-14.9110
-27.3075
-8.2993
-11.7111
-20.5265
-44.5403
-18.1866
-23.1305
-59.7803
-31.6051
-13.7761
-17.8886
-25.8618
-54.3670
-20.5994
-35.9971
-44.6720
-63.4364
-149.7405
-177.1302
-153.8293
-64.1722
-31.8467
-62.1881
-95.2934
-119.3509
-39.7872
-58.7152
-72.7387
-117.5321
-6.9899
-9.8969
-14.3100
-20.2621
-4.0724
-5.7917
-8.5494
-12.7502
-14.2428
-19.2742
-26.1704
-35.6589
-4.8288
-7.1867
-11.2468
-18.4382
-4.7280
-8.6422
-18.4977
-44.2217
-17.4113
-21.5430
-31.9401
-44.1844
-23.7958
-40.6415
-51.6780
-69.2962
-11.1711
-19.6464
-31.8821
-51.6018
-7.2633
-14.6228
-38.3002
-104.4000
-4.3979
-8.3959
-15.8285
-36.2765
-10.8542
-22.5426
-38.8639
-91.2396
-6.5062
-26.9424
-54.5890
-81.1354
-22.6537
-23.0055
-49.2710
-93.4862
-24.2048
-35.4186
-63.5143
-86.9446
-167.6166
-176.2731
-135.5618
-174.6861
-39.3388
-71.4454
-117.9555
-119.2143
-80.4387
-139.8987
-122.4193
-279.6053
-5.4702
-7.8394
-11.0723
-15.3587
-2.7571
-4.0045
-5.6267
-7.8976
-11.1196
-15.4473
-22.6369
-32.1703
-3.6506
-5.1685
-7.4010
-10.4684
-3.2364
-5.7571
-10.4449
-21.8326
-7.6188
-10.3844
-15.1290
-21.7834
-10.9380
-15.2732
-25.6867
-37.5433
-9.3136
-16.1279
-25.8784
-41.0839
-6.6971
-10.4974
-20.7038
-59.9594
-4.5207
-8.5720
-15.5982
-28.1298
-7.9396
-12.0238
-23.9095
-48.5756
-14.6234
-20.7313
-25.9309
-68.4827
-20.6783
-22.2864
-42.0256
-46.1166
-21.0509
-34.2260
-50.5396
-91.6406
-109.3556
-106.0354
-136.9292
-123.7521
-32.3605
-64.5132
-97.0463
-122.7781
-39.7045
-51.3067
-76.1780
-102.5973
-5.7884
-8.2862
-11.7160
-16.5574
-2.9784
-4.1878
-5.9480
-8.3466
-12.1078
-16.6763
-23.6638
-33.3518
-3.6131
-5.1637
-7.3273
-10.3969
-3.2825
-5.8409
-10.4711
-19.8596
-9.9286
-13.2543
-17.6094
-23.8606
-10.6135
-17.6848
-24.1396
-38.3410
-9.3572
-16.1439
-25.3269
-37.7638
-6.9875
-10.4632
-17.0968
-46.8479
-4.2228
-8.3802
-15.4763
-27.6053
-7.9623
-13.3055
-25.0198
-54.1180
-22.5784
-27.9413
-32.5462
-61.9052
-14.6486
-19.4654
-30.0469
-48.4981
-20.2133
-32.0799
-33.9602
-43.9974
-105.7669
-125.7946
-76.8814
-71.3330
-32.4389
-64.9045
-97.2672
-128.5076
-28.5798
-38.6367
-61.0809
-77.2704
-5.8231
-8.3263
-11.7910
-16.6732
-2.9913
-4.2455
-6.0216
-8.5749
-11.9333
-16.9273
-23.9391
-33.7080
-4.2788
-6.1547
-8.9613
-12.9406
-3.2812
-5.8442
-10.4430
-20.2276
-8.3741
-10.8707
-14.2274
-22.0972
-14.7436
-23.1979
-34.9634
-59.8905
-8.7839
-15.1884
-23.9556
-36.4651
-5.3886
-8.3079
-15.5063
-48.8945
-3.4034
-6.9977
-14.0720
-27.6973
-11.3690
-20.6809
-31.7087
-62.3551
-6.4502
-27.7899
-39.9806
-59.3160
-16.0422
-22.0242
-46.9409
-47.4981
-21.0412
-23.5725
-34.0562
-49.7268
-99.9024
-93.7760
-68.2591
-72.8476
-31.6891
-63.4423
-94.8749
-125.0759
-35.6954
-45.1860
-75.4803
-90.4702
-5.9625
-8.5333
-12.0631
-17.0796
-3.0324
-4.3357
-6.1129
-8.6363
-12.0874
-17.0490
-24.2755
-34.7073
-4.8980
-7.1651
-10.4943
-15.1334
-3.3918
-6.0414
-10.7888
-19.9566
-9.9842
-13.3889
-18.2375
-25.7144
-12.1400
-19.4137
-28.4803
-56.1912
-8.3425
-14.3755
-22.8180
-35.3939
-6.6505
-10.3736
-16.7386
-46.8571
-4.4415
-8.6848
-16.0114
-28.9194
-8.2497
-12.9277
-24.3553
-52.5939
-17.7298
-19.8080
-25.4764
-58.1559
-27.8510
-33.5091
-37.2466
-60.6403
-19.1270
-28.5635
-42.1868
-56.0170
-83.7464
-99.2658
-116.6361
-137.0656
-33.5452
-67.1741
-100.6168
-133.9657
-23.8504
-31.8391
-53.1044
-63.6711
-18.4258
-25.5212
-37.5640
-52.0820
-16.7969
-23.6562
-33.0812
-47.3680
-21.0813
-29.9417
-44.6439
-63.1761
-16.6694
-23.5961
-33.7017
-48.4072
-17.3357
-31.2926
-56.9180
-106.0892
-22.4762
-29.9851
-41.5587
-69.6057
-32.7190
-45.3418
-58.7085
-76.0158
-26.6276
-46.3887
-77.2828
-128.6896
-27.1508
-51.5107
-99.2004
-227.5235
-21.3668
-36.6438
-36.6876
-60.0503
-9.4765
-14.4601
-16.1448
-50.4204
-24.2407
-37.4740
-47.0139
-92.5858
-8.9402
-23.1289
-22.3034
-48.6952
-56.1453
-69.6820
-60.5590
-72.8250
-222.6293
-172.4460
-91.5896
-114.1832
-61.0005
-66.6855
-182.8445
-116.1603
-49.5839
-157.4118
-76.4105
-314.7621
