7.4092
5.9916
4.8132
3.7524
10.6363
8.9223
7.3816
5.9918
5.5167
4.3659
3.3424
2.5418
12.8216
10.9522
9.3633
7.6452
9.6754
7.1208
4.9784
3.1928
8.0894
6.3540
4.9806
3.7458
6.6512
5.5156
4.3897
3.4501
8.0865
4.9580
2.4761
0.7579
5.8445
3.9306
2.3248
0.9098
7.7881
4.7245
2.4086
1.3143
6.6360
4.5241
2.0822
0.4058
16.7687
12.1360
7.7506
2.2456
8.5819
3.5728
3.0894
3.8868
58.8274
46.9872
36.6019
28.5064
62.0918
71.4764
76.7433
79.5164
82.7881
50.1957
82.4302
25.1636
26.9398
25.0338
22.8593
22.9876
4.1925
3.2307
2.4265
1.7663
6.6542
5.3201
4.2008
3.1979
2.8705
2.1192
1.5118
1.0634
9.3495
7.7028
6.1168
4.5991
5.9230
4.0131
2.5361
1.4382
4.9977
3.0318
2.0642
1.4135
3.8924
3.4766
2.7891
2.2672
8.2097
5.0717
2.5312
0.7998
3.2837
2.0785
1.1141
0.5029
4.8906
2.5594
1.0361
0.4998
1.8360
0.5429
0.1706
0.1177
6.4309
1.5730
0.5196
0.3412
4.6351
2.6677
0.9714
4.8735
52.5949
42.1893
36.2958
28.0397
55.2995
65.2273
71.3200
73.7045
72.0122
25.9180
68.4889
12.1553
19.6427
19.3642
15.8912
17.3618
3.2741
2.5316
1.9197
1.4540
5.0944
4.0679
3.2031
2.4859
2.1958
1.6601
1.2222
0.9217
8.0773
6.8042
5.4509
4.1441
4.5598
3.1166
2.0293
1.2178
3.4617
2.4864
1.8399
1.3495
3.2698
2.7273
2.3246
1.9473
7.9825
5.1775
2.7845
1.2271
3.1176
2.1728
1.3403
0.7142
3.9660
2.1991
1.0497
0.5868
1.3174
0.6571
0.2769
0.1598
5.2564
3.6485
2.7569
0.9438
2.0482
2.6678
1.6441
0.7029
48.8588
42.3539
33.5498
26.0729
54.3219
61.2651
66.4511
69.6260
61.3415
42.5360
58.6997
29.9415
14.9091
15.5648
13.4951
13.9684
3.6424
2.7717
2.0685
1.4904
5.9187
4.6800
3.6785
2.7348
2.4006
1.7357
1.2392
0.8525
8.9983
7.5116
5.9247
4.3810
5.2770
3.5127
2.1890
1.2337
4.6397
2.7185
1.8606
1.2856
3.6226
2.8773
2.2359
1.8732
8.9045
5.6916
3.0198
1.2195
3.1198
2.0865
1.2123
0.6672
4.4640
2.3409
0.9546
0.4721
0.9915
0.5183
0.2525
0.1494
5.7161
2.0161
1.8709
0.6343
1.5765
1.2105
1.6489
0.6422
54.1047
43.8835
40.4109
28.7676
55.3824
64.5073
69.8712
72.6565
74.6566
60.2558
74.0924
39.5883
20.0309
18.2012
18.3217
16.3266
8.4563
6.9363
5.6132
4.3909
11.8584
10.0346
8.4090
6.8410
6.3613
5.0473
3.9100
2.9636
13.9964
11.8891
9.9109
7.9885
10.8482
8.0789
5.6790
3.6316
8.4235
6.4741
5.0096
3.8221
7.9468
6.1928
4.7497
3.8189
8.6674
5.4042
2.8324
1.0674
7.3232
5.1487
3.0267
1.4169
8.9778
5.5769
2.9645
1.6981
8.1913
5.7964
3.5800
1.6694
20.2624
14.8942
14.3703
5.3355
17.8829
6.5079
3.6625
2.3209
57.3553
46.4184
37.8116
30.1170
61.4962
71.1418
77.5157
81.0527
58.1761
23.2813
48.4028
11.7817
17.9760
26.6305
11.2215
24.5387
6.6973
5.4041
4.3088
3.3403
9.6582
8.0657
6.6458
5.3876
4.9635
3.8787
3.0020
2.2440
12.3900
10.6088
8.8360
7.3819
8.7673
6.4059
4.4376
2.8113
7.7743
5.4204
4.0119
2.9775
6.5532
5.2051
4.0094
3.0135
8.4861
5.2749
2.6628
0.8531
5.3111
3.4927
1.9461
0.7534
7.1079
4.2044
2.0197
1.0075
5.6061
3.6787
1.5877
0.2788
10.6292
12.9770
10.2166
4.5901
9.7372
4.9719
2.3545
2.0620
57.1732
43.9217
34.3251
28.6153
58.7849
68.6938
74.8336
77.4057
67.5056
64.4335
57.4070
48.2033
22.6038
23.6590
18.8477
21.8447
5.0341
4.0339
3.1909
2.4831
7.4658
6.1589
5.0109
4.0203
3.5552
2.7648
2.1020
1.5758
9.9706
8.4480
6.9126
5.5399
6.8118
4.9043
3.3684
2.1363
5.3134
4.1170
3.1666
2.4233
4.6614
3.4712
2.8526
2.1779
8.7108
5.6930
3.1729
1.1061
4.9848
3.6210
2.3285
1.2308
6.1898
3.7696
1.9353
1.1399
3.1362
1.8825
0.8904
0.3393
9.5829
5.3062
2.3489
2.1043
4.5256
2.0055
1.5451
1.0484
55.4515
44.2109
35.7931
30.0819
56.4547
65.5307
71.1656
73.7011
71.8970
42.0613
68.0921
29.8568
19.8742
19.6962
14.7503
17.8995
8.2510
6.8124
5.5192
4.4025
11.4200
9.7248
8.1496
6.7185
6.3409
5.0910
4.0320
3.0907
14.2251
12.2931
10.4330
8.6606
10.4933
7.8724
5.6229
3.7137
8.6771
6.1286
4.7114
3.5256
7.6845
6.5656
5.1281
3.7383
8.4740
5.2966
2.7157
0.9984
7.0451
5.1059
3.1980
1.5891
8.6439
5.4062
2.9115
1.7334
7.2904
5.0980
3.5825
1.5190
19.9238
13.8464
12.4332
11.5514
6.4778
13.0916
4.9111
3.4867
58.5483
47.3743
36.3043
30.3358
61.5844
71.1178
77.0100
80.4031
47.7215
61.6634
38.9930
35.7864
18.2678
25.7583
12.9646
24.1229
4.7681
3.8202
3.0202
2.3353
7.1377
5.8567
4.7527
3.8032
3.4083
2.6613
2.0411
1.5285
10.9406
9.3580
7.7929
6.3235
6.4402
4.5832
3.1249
1.9925
5.0413
3.8610
2.9554
2.1918
4.6598
3.4288
2.7416
2.1831
8.3993
5.3900
2.8044
1.0604
4.1664
2.9642
1.9063
0.9735
5.3613
3.2026
1.6595
0.9806
2.9362
1.5794
0.7026
0.3147
12.9459
6.0322
2.5543
1.4316
3.8148
2.5680
1.8002
2.4740
55.2082
46.9250
38.0090
30.0617
54.0473
64.7654
69.9386
73.3357
67.6727
67.2740
58.7632
52.0938
19.5130
19.2881
16.1437
17.5322
4.6452
3.6589
2.8326
2.1591
7.0867
5.7478
4.5997
3.6199
3.2535
2.4889
1.8592
1.3936
10.6457
9.0411
7.4440
5.9247
6.3784
4.4617
2.9647
1.8213
5.7123
3.6732
2.6127
1.9016
4.6713
3.5461
2.6085
1.8965
8.5223
5.4219
2.8418
1.0813
4.0100
2.6783
1.5058
0.6873
5.3356
3.0418
1.4285
0.7727
2.4636
1.1917
0.4618
0.1927
7.6712
6.5739
4.1803
1.1748
2.8763
2.1808
2.4596
1.4165
54.0318
46.6924
38.1969
29.8656
55.4506
65.5232
70.5314
73.8213
65.5096
69.3252
61.1930
56.8966
19.6462
19.5854
17.1030
17.7536
6.1318
4.9109
3.9023
3.0348
9.0164
7.4643
6.1303
4.8838
4.4252
3.4764
2.6486
1.9582
11.9469
10.1334
8.4038
6.7388
8.1571
5.8844
4.0132
2.4962
6.3073
4.9248
3.7367
2.7431
5.8183
4.7757
4.0324
3.0643
8.0464
4.9673
2.5188
0.8664
4.9584
3.3045
1.8840
0.8332
6.7053
3.9598
1.9247
1.0218
4.9101
3.1760
1.1685
0.2843
13.9512
10.2153
4.1624
2.1614
5.9206
4.2339
2.3537
1.2577
56.5591
46.1827
35.7396
28.3998
58.2889
68.0254
73.2935
76.7089
67.6412
39.8676
59.1178
26.3412
20.1294
22.5259
15.2313
20.2762
4.5683
3.5408
2.7192
2.0608
7.0147
5.6794
4.5280
3.5143
3.1677
2.3997
1.7290
1.2614
9.7065
8.1087
6.5734
5.1792
6.2886
4.3527
2.8279
1.6630
5.0854
3.2210
2.2535
1.6031
4.4101
3.3135
3.0269
2.3879
8.5042
5.3820
2.8037
0.9800
3.6125
2.3293
1.3075
0.6707
5.3043
2.8907
1.1905
0.6319
1.9120
0.6729
0.2973
0.1534
11.1850
3.6249
3.0018
1.9186
2.8777
1.6309
1.5391
3.9170
55.6754
43.7003
35.9412
27.9477
56.2850
64.7037
70.5902
73.7896
61.3873
72.2538
47.5084
61.7297
19.3882
19.6149
16.4118
17.7747
8.5517
6.9417
5.5005
4.2614
12.1908
10.2535
8.4821
6.8562
6.3983
5.0084
3.8534
2.8480
15.1000
12.9601
10.9926
8.9666
11.0691
8.1368
5.6147
3.4904
9.0521
6.9438
5.3563
4.0035
8.1266
6.4128
5.0282
3.4361
8.8055
5.3241
2.5973
0.7942
6.5135
4.0928
2.1100
0.7469
8.6175
5.0698
2.3695
1.1735
9.6900
6.6014
4.0506
1.3515
15.0874
11.7510
15.7210
9.6501
13.3738
4.9470
4.1830
2.4991
59.7374
51.2862
42.7934
33.1644
61.8568
72.6324
78.4419
81.9494
50.5326
47.7211
44.7694
32.2436
20.1849
27.6889
15.1081
25.5848
6.9504
5.5854
4.4036
3.3968
10.1557
8.4457
6.9100
5.5572
5.0768
3.9294
2.9773
2.1935
12.9706
11.0512
9.2011
7.4400
9.2095
6.6822
4.5715
2.8408
7.8445
5.4490
4.0076
2.9109
6.5007
4.9216
3.8052
3.0507
8.6142
5.3347
2.7441
0.9822
5.5628
3.7454
2.1112
1.0139
7.5178
4.4782
2.1751
1.1572
6.2568
3.9463
1.8515
0.6514
11.9002
12.9106
8.1791
6.3242
7.2181
3.7802
2.9456
1.7826
56.6336
46.1413
38.6210
28.4512
61.1613
70.3895
75.8200
78.7821
64.0837
45.1511
49.1545
29.1404
21.7588
24.6238
16.2874
22.3864
3.8174
2.9504
2.2562
1.7213
5.9268
4.7698
3.7585
2.8965
2.6262
1.9464
1.4665
1.0435
9.3405
7.7930
6.3016
4.9059
5.2847
3.6009
2.3184
1.3726
3.6686
2.6908
1.9527
1.3992
3.6764
3.0069
2.4401
1.9557
8.3930
5.3464
2.8180
1.1906
3.2197
2.2062
1.3652
0.7714
4.3549
2.4121
1.1011
0.6609
1.5828
0.7666
0.3668
0.2305
6.9426
1.8437
2.0098
0.6621
2.4985
2.3026
1.6935
0.6606
54.1134
45.2769
36.9383
30.2346
54.6652
63.2061
68.2560
71.5411
64.1684
46.1877
60.1170
22.0781
15.6530
17.8620
12.3687
15.9666
3.8978
3.0279
2.3013
1.7083
6.1467
4.9252
3.8790
3.0064
2.6962
1.9882
1.4877
1.0460
9.3839
7.8430
6.3818
5.0401
5.4926
3.7560
2.4226
1.4237
4.9263
3.1434
2.2028
1.5543
3.4461
2.4835
2.0922
1.4184
8.2870
5.2425
2.7152
1.0092
3.1028
1.9744
1.0255
0.4758
4.6112
2.4781
0.9952
0.4646
1.8224
0.4690
0.1472
0.0957
5.0664
2.8748
1.3515
0.3686
2.0493
2.2537
0.9322
1.2961
54.4952
47.1194
38.5641
30.4583
54.1947
63.9549
69.1521
72.1137
68.7667
66.5648
65.1422
58.0248
18.7649
18.0147
17.8009
16.3619
4.5598
3.5416
2.7361
2.0710
6.9495
5.6495
4.5113
3.5112
3.1286
2.3441
1.7480
1.2501
10.7151
9.0503
7.4333
5.9491
6.2740
4.3576
2.8641
1.7256
4.8300
3.5113
2.6706
1.9391
4.2866
3.1559
2.2088
1.4698
8.6536
5.5180
2.9778
1.2511
3.9036
2.6689
1.6016
0.8160
5.4113
3.1312
1.4548
0.8011
2.6257
1.1710
0.5072
0.1567
7.3149
8.0318
4.8125
0.5650
4.5975
2.0895
1.5002
1.3835
52.9558
46.6579
39.2785
31.9858
55.7958
64.2158
70.3773
73.5601
72.6086
43.2404
71.3220
31.4679
18.2692
19.3864
15.6340
17.6934
6.7732
5.4165
4.3235
3.2760
9.8633
8.1960
6.7238
5.4007
4.9122
3.7966
2.8677
2.1009
13.0390
11.1113
9.2675
7.4862
8.9516
6.4724
4.3899
2.6925
7.0478
4.8104
3.4948
2.5382
6.4302
4.8759
3.9445
3.2094
8.8078
5.4556
2.7822
0.9360
5.4084
3.5724
1.9435
0.8572
7.3214
4.3358
2.1071
1.1069
5.7999
3.6700
1.5317
0.3717
11.9011
10.4718
7.4966
2.5118
7.2152
6.4223
2.7293
1.3218
57.5976
46.4016
40.0132
31.0494
60.7031
70.3192
75.4988
78.3254
64.9970
26.5785
60.1618
14.2641
20.9047
24.0875
15.2603
22.2442
6.6935
5.4945
4.4337
3.5113
9.5190
8.0185
6.6837
5.4587
5.0365
4.0087
3.1624
2.4342
12.8733
11.1711
9.8664
7.8731
8.6729
6.4084
4.5128
2.9352
6.9693
5.3629
4.2650
3.2365
6.4676
5.2205
4.4033
3.5481
9.2287
6.0890
3.4120
1.2912
5.7527
4.2400
2.7608
1.5417
7.3408
4.5057
2.3809
1.4151
4.9422
3.4781
1.7788
0.7311
14.6659
8.9638
8.3615
5.6291
7.6705
5.0498
3.3293
1.9378
57.2477
47.0592
38.9323
32.6465
58.0232
68.6159
74.1338
77.0979
54.0941
53.0609
43.3076
44.1290
18.4281
22.7679
13.7257
20.9494
3.7921
3.0879
2.4815
1.9713
5.5006
4.5567
3.7216
3.0400
2.7941
2.2051
1.7074
1.3171
9.5943
7.9783
6.4316
4.9957
4.9817
3.6064
2.5042
1.6209
3.6901
2.6250
1.9644
1.4706
3.7839
3.2566
2.7714
1.8913
8.1433
5.2456
2.7266
1.0162
3.5954
2.6714
1.6944
0.9607
4.1696
2.6042
1.4239
0.9083
2.2987
1.2453
0.6566
0.3005
10.9263
4.1718
3.0541
0.8726
2.7677
4.4032
1.5120
1.0960
48.8855
40.0134
34.9282
26.7442
50.3207
58.6385
64.7259
67.5673
35.2290
48.0342
25.4749
39.9950
10.5697
18.0188
6.1943
16.1665
5.8863
4.7455
3.8063
3.0184
8.5919
7.1223
5.8485
4.7457
4.3347
3.4385
2.6515
1.9877
12.2447
10.5937
8.8996
7.3137
7.7588
5.6373
3.9157
2.5073
6.3410
4.8303
3.7101
2.8221
6.0658
4.8022
3.7921
2.6989
8.3247
5.2354
2.6347
0.9165
4.8098
3.3053
1.9094
0.8520
6.2660
3.7626
1.9576
1.0890
4.5266
2.9969
1.3030
0.3581
12.3447
10.2901
6.4857
1.6312
4.5367
3.6906
2.2190
1.9929
54.5818
48.1604
38.8243
29.6224
57.5775
67.2148
72.5709
75.5229
64.7278
51.8028
60.3110
39.9080
19.8005
21.7750
15.2172
19.8519
5.6193
4.4525
3.4457
2.6415
8.3678
6.8989
5.5552
4.4185
4.0011
3.0513
2.3044
1.6884
11.3264
9.5492
7.8823
6.3416
7.5656
5.3697
3.5924
2.1848
6.4681
4.3071
3.1761
2.2997
5.4373
4.1546
3.3408
2.5262
8.4000
5.2178
2.6479
0.9176
4.4255
2.9261
1.6674
0.7798
6.1296
3.5491
1.6269
0.8395
4.1892
2.2166
0.6726
0.1709
11.9953
8.7502
4.4804
1.1966
4.4828
3.1843
1.7454
1.7832
58.0539
47.5727
37.1161
29.3313
57.7942
67.6126
73.3920
76.3173
59.3875
65.4669
53.5933
39.3003
20.1097
21.9405
17.5532
20.0734
3.5547
2.7546
2.1689
1.6282
5.5811
4.4603
3.5370
2.7537
2.4453
1.8431
1.3540
1.0131
9.7666
8.2356
6.7351
5.3485
5.0111
3.4369
2.2625
1.3972
3.7811
2.7418
2.0292
1.4914
3.3088
2.5820
1.9229
1.4397
8.6994
5.6943
3.1866
1.6052
3.2867
2.3489
1.5942
0.9075
4.2951
2.4784
1.2068
0.7214
1.7527
1.0279
0.6391
0.3428
7.5523
4.5680
2.6796
1.5271
3.0746
1.4396
1.2114
1.1547
53.8961
46.8249
37.3269
28.9396
54.4405
62.4543
67.7102
71.1112
56.1577
65.3036
46.7511
43.2697
15.4322
17.1078
12.7170
15.3286
5.8285
4.6124
3.6231
2.7731
8.6130
7.0753
5.7655
4.6172
4.1636
3.1811
2.4183
1.7545
11.9527
10.1936
8.4998
6.9444
7.7927
5.5811
3.7841
2.3479
6.6975
4.6971
3.4051
2.4451
5.4673
4.2888
3.2986
2.5387
8.1450
5.0419
2.5906
0.9408
5.0647
3.3970
1.9181
0.8483
6.5572
3.8870
1.8787
0.9799
4.5274
2.7293
0.9729
0.2115
15.2979
7.6006
4.0273
0.9175
6.1199
4.0178
1.6538
3.1498
58.3649
49.3321
41.3169
31.7062
59.0082
68.0373
72.8638
76.1957
71.0210
74.2438
69.4029
51.2786
22.7493
21.8660
22.6933
20.0175
7.6814
6.4857
5.4407
4.4572
10.0421
8.7057
7.4789
6.2749
6.1510
5.1592
4.2490
3.4338
12.2318
10.0527
8.4830
7.0303
9.1780
7.1022
5.2521
3.6146
6.7067
5.4731
4.3786
3.4785
25.4283
25.0048
24.7040
23.3344
11.0241
8.2211
5.7761
2.8156
10.1252
7.9715
5.4340
3.1248
8.9859
6.4513
4.6175
3.2494
9.4657
7.5816
6.6434
4.8622
13.9950
12.0966
10.6716
11.0505
11.3460
6.8760
8.0771
6.2631
50.4963
44.7331
38.3132
33.9460
47.7927
57.4982
62.4649
64.8326
48.6851
39.8567
42.1698
34.3240
29.6657
34.9579
27.9186
33.2483
