5.9706
5.4167
4.5556
4.3143
6.1429
5.7941
5.4444
4.9143
4.8056
4.0286
3.5278
2.7500
6.0286
5.9714
5.7429
4.8286
5.8571
5.6111
4.8571
3.5429
4.4706
4.2286
4.0294
3.3056
4.7778
4.1111
3.2000
2.1667
4.7353
3.9143
3.2778
2.1765
5.7143
4.9143
3.0000
1.2000
5.9444
5.1667
3.3056
1.4571
5.8000
5.1667
3.5556
1.0000
6.4242
4.3056
4.1111
3.3889
4.1714
3.8235
3.5143
3.1765
6.3429
6.3429
5.6944
4.6111
2.5143
2.9706
3.8571
4.2778
5.9412
5.6286
5.8889
4.8571
6.5000
4.9714
6.1944
3.9722
6.3000
5.6563
4.9375
4.0645
6.1724
6.4688
5.4839
5.0313
4.8387
4.0333
3.6452
3.0938
6.1935
6.0000
5.2813
4.5484
7.0000
5.8065
4.8750
3.5000
4.5938
4.2188
4.0000
3.5000
5.7188
4.2581
3.6452
2.9063
5.6774
4.7097
4.0000
3.1250
5.6875
4.9063
3.9032
2.2258
6.1250
5.8065
3.4375
2.5625
5.0625
2.9355
1.2333
0.0000
4.5161
3.3226
2.8125
1.8710
4.3548
3.7333
2.7188
3.6774
6.2581
5.5625
5.1875
4.1563
3.2500
3.6875
4.1250
4.4194
6.2813
5.5000
5.4063
5.1333
6.5313
5.2188
5.1333
4.2188
5.5000
5.0667
4.6207
4.2414
6.3333
5.7000
5.3214
4.9655
4.3793
3.9655
3.6000
3.0690
6.2333
5.4667
4.9333
4.1429
6.3667
5.6000
4.9000
3.8333
4.8966
4.5517
4.0357
3.9000
4.6897
4.0000
3.8333
3.6207
5.7931
5.2414
4.0000
3.0690
6.9310
5.5333
4.0345
2.1786
6.3929
5.4138
3.1667
2.2667
4.1379
2.8667
1.1379
0.1667
4.3667
3.1333
3.1333
2.3333
3.8000
3.9667
3.3448
2.4333
6.0345
5.1000
4.2069
3.2000
3.0690
4.2333
4.3000
4.7931
6.6000
6.4333
6.4828
5.7586
7.2000
5.5333
7.0667
4.5333
5.4286
4.9429
4.6176
4.1429
6.2857
5.6765
5.1471
4.6471
4.4412
3.9143
3.3529
3.1176
6.2000
6.2424
5.6286
4.9714
6.1176
5.3235
4.5152
4.0588
4.7941
4.4118
4.0286
3.7647
4.0588
3.6765
3.1212
2.8235
6.2121
5.5714
4.9394
3.7059
6.1471
5.4286
4.0588
2.6286
6.1471
5.2857
3.1765
1.8235
3.8182
2.8286
1.7714
0.0606
4.8857
4.3429
3.0286
2.5882
3.8571
3.2857
3.7143
2.5152
6.2941
6.1143
4.5294
3.7647
2.4118
3.4706
4.0857
4.5714
6.3333
6.2571
5.6857
5.7714
7.2059
5.1765
7.7143
4.3235
5.8788
5.0323
4.5152
3.8387
5.5938
5.9697
5.2424
4.7742
4.6061
3.8182
3.5938
2.7813
6.0000
5.6250
5.4375
4.6875
6.0606
5.3636
4.3333
3.1563
4.3939
3.9394
3.5938
3.0323
5.5758
4.8182
3.7813
3.0909
4.8750
3.8485
3.1212
1.1515
6.3125
5.4242
3.4688
1.6667
5.5625
4.6667
3.6250
1.8182
5.6970
5.0323
3.8710
2.5152
6.2121
5.3750
4.1875
2.5938
5.7188
3.9394
3.5938
2.3438
6.1818
6.3438
5.5455
4.6364
2.2500
3.1212
3.4242
4.0000
5.7188
5.9063
5.0000
5.0938
7.0313
4.6667
6.9394
3.4848
5.7500
5.3333
4.7838
4.1351
6.6000
6.1111
5.4167
4.9714
4.5405
3.9730
3.3889
2.7838
6.3243
5.7143
5.3611
4.7647
6.0811
5.4324
4.7027
3.4857
4.8649
4.4865
4.1389
3.5556
5.1944
4.6944
3.2286
3.0833
4.8889
4.1389
3.1944
2.1622
6.3333
5.1111
3.3243
1.4571
6.1081
5.2703
3.3333
1.5135
5.7838
5.1111
3.1111
0.1429
4.5556
4.1389
3.6667
4.1622
5.1892
4.4444
3.4444
2.6389
6.3784
5.1351
4.5000
4.2500
2.5556
3.2500
4.0278
4.4324
6.8333
5.6111
5.8108
4.9459
6.5405
4.6111
6.0000
3.7143
5.5455
4.9091
4.8182
4.0000
6.0909
6.0000
5.3333
5.0588
4.6563
4.0882
3.3824
2.8235
6.2727
5.7273
5.4516
4.5000
6.4516
5.7879
4.8125
3.7353
4.8788
4.8182
4.1515
3.7353
5.3636
4.2059
3.6667
2.7353
5.7576
4.6765
3.6471
2.6667
6.2353
5.5000
3.9688
2.4118
6.1765
5.0000
3.6471
2.2424
4.8235
3.5938
2.0000
0.3125
4.4848
3.7353
2.8824
2.3235
4.2059
3.6970
2.6667
2.5000
6.3636
5.9412
5.3636
4.1212
3.2188
3.4848
3.6875
4.2121
6.6061
6.3636
5.6970
5.3939
6.7500
5.0303
6.5882
4.0303
5.6875
5.0000
4.3226
4.1613
6.2188
5.7333
5.4667
5.2000
4.8125
4.0323
3.4375
2.8387
5.8750
6.0323
5.5000
5.1613
5.9063
5.7742
4.5806
3.6129
4.4839
4.3125
3.8750
3.4194
5.1563
4.5313
3.5484
2.5484
5.1290
3.9355
3.0645
1.9063
6.0625
5.2667
4.0000
1.9688
6.0625
5.0000
3.3226
1.0938
5.4194
4.9677
4.3226
2.4194
5.9032
5.5667
4.4688
3.7097
3.6250
4.5806
3.3125
2.4516
6.0968
5.5806
4.7500
3.5313
2.4516
3.2500
4.0000
3.8438
6.2258
5.7813
5.7188
5.0000
5.8065
4.9063
5.3125
3.8710
5.2424
5.0882
4.8125
4.1818
6.2059
5.8182
5.4706
4.8235
4.4412
4.1765
3.6176
3.3030
5.9706
5.4412
5.0303
4.4412
6.2727
5.3235
4.6176
3.7647
4.9412
4.6765
4.1176
3.7353
4.9394
4.5294
4.0000
3.0313
5.5455
4.6364
3.6061
2.1471
6.3333
5.3750
3.8235
2.3824
5.9375
5.1471
3.3235
2.0294
5.0882
3.7059
2.1818
0.0000
6.4545
4.5588
2.6471
2.3333
4.0909
3.5938
3.0588
3.2059
6.2647
6.5000
4.7059
3.4688
2.3529
3.2353
3.6176
4.6667
6.5882
6.0588
6.2647
5.4118
6.8788
5.3824
7.0294
4.0606
5.7000
5.0968
4.8333
4.0645
6.3333
5.9667
5.3333
4.9333
4.5000
4.1034
3.6452
3.1290
5.7742
5.8065
5.1613
4.8966
6.2903
5.5806
4.7667
3.8000
5.3000
4.7742
4.4667
3.8333
4.6552
4.0000
3.6207
3.2000
5.3000
4.4483
3.5161
2.5161
6.1935
5.0333
3.5484
2.1613
6.1034
5.2414
3.1613
2.1935
4.8065
3.3000
1.6000
0.0690
5.7000
5.0000
4.1667
2.6333
4.2903
3.6129
2.9667
3.0333
6.1000
5.4667
4.1724
3.9667
2.7241
3.2667
3.5484
3.9677
6.5161
6.1000
5.8710
5.3333
6.9032
5.2000
6.4194
4.2414
6.0313
5.2727
4.5484
4.0303
6.1875
5.8438
5.3939
5.1563
4.7576
4.0625
3.3438
2.9394
6.4242
6.1212
5.5758
4.8788
6.2121
5.5484
4.6061
3.5455
4.7500
4.3548
3.9697
3.3438
5.2581
4.7500
3.7419
2.8182
4.7500
4.2727
3.3636
2.2121
5.5758
4.6970
3.3226
1.8485
6.2424
5.6563
3.6875
1.9063
5.5313
4.6563
2.7879
0.0938
5.8125
4.5625
3.9697
2.0909
4.3939
3.6250
3.0000
2.5484
6.3333
5.6970
4.9000
4.1212
2.8125
3.6875
4.2727
4.2258
6.1818
5.7879
5.1563
4.9394
6.8788
4.6667
7.1563
3.8485
5.8182
5.2353
4.6176
4.1176
6.1818
5.8788
5.3824
5.1563
4.5758
3.9412
3.4118
3.0000
5.9091
5.5294
4.9394
4.0313
6.3333
5.3939
4.6471
3.8485
5.3235
5.0303
4.5758
3.9394
4.6667
3.9688
3.1471
3.2647
5.6364
4.6471
3.6176
2.6471
5.6364
4.9706
3.2121
2.2647
6.0606
5.2353
2.9697
1.8485
4.8125
2.7813
1.2727
0.0909
5.3824
3.5588
3.1471
3.2059
4.8788
3.6061
2.9091
4.4706
6.5294
4.5758
4.4242
3.6364
3.0625
3.7059
4.2353
4.4242
6.6970
6.5758
6.4706
5.7941
6.9706
5.6970
6.7941
4.4848
5.9394
5.5152
5.1515
4.2727
5.5758
6.0000
5.7273
5.0625
5.1212
4.6061
3.8235
3.0909
5.9706
5.7576
5.4848
5.0938
5.7647
5.2941
4.6061
3.5455
4.4118
4.1176
3.7419
3.2188
5.4706
4.8485
3.3125
2.6765
4.0909
3.5152
2.9091
2.1563
4.6129
3.6061
2.3939
0.6765
5.8824
5.2424
2.9118
0.8788
5.8182
5.0909
4.3333
2.3939
5.9412
4.9412
5.4706
5.2059
4.6471
5.0588
3.8485
2.6471
6.0909
5.5455
5.3235
4.0000
2.6563
2.8788
3.6176
3.8485
5.9394
6.0000
4.6364
4.9394
6.7879
4.5588
6.1765
3.3939
6.1818
4.9688
4.9118
4.1515
6.2813
5.8235
5.7647
5.2647
4.9412
4.1471
3.8529
3.1471
6.1515
5.8235
5.3030
4.4848
5.8529
5.3529
4.5588
3.5313
4.9375
4.4848
4.0909
3.6970
5.4545
4.6970
3.7879
3.0294
4.9412
3.7647
2.7647
1.9063
6.2941
5.0000
3.0882
1.5294
5.6667
5.0606
3.2500
1.6471
5.5758
4.5152
3.0588
0.9394
6.0882
4.4412
4.0000
3.2121
4.9375
4.0606
3.6176
2.1515
6.1176
4.7879
4.2424
3.3824
2.3750
3.1765
3.7813
4.6667
6.1515
6.2424
5.7273
5.2121
6.9706
4.8485
7.2941
3.9063
5.4857
5.1714
4.5429
4.2500
6.2059
5.8235
5.2286
4.6667
4.5000
3.9429
3.3611
2.8611
6.3889
6.3889
5.8857
5.4857
6.4722
5.6111
4.8056
3.6944
4.6857
4.2647
3.8286
3.3611
4.1143
3.9714
3.1389
2.6944
6.1389
5.1176
4.4722
3.6857
5.8571
5.1714
3.9118
2.4286
6.2857
5.1143
3.5000
1.8824
4.7222
3.0000
1.8889
0.3429
5.6571
4.3143
3.2778
2.5714
4.2286
3.4722
2.8333
1.6111
6.2571
6.2500
5.0588
3.9706
3.3714
3.6765
4.4857
4.5000
6.2500
5.5278
5.7778
4.3824
6.5000
5.4444
6.5278
4.2222
5.4839
5.5484
4.6774
4.2333
6.0968
5.9667
5.2414
4.8387
4.6452
3.9333
3.4839
3.0000
6.1935
5.3333
5.1000
4.5333
6.2667
5.4516
4.5806
3.6129
5.0667
4.7097
4.1667
3.9000
4.5484
4.0968
3.7333
2.9677
5.4516
4.1613
3.4000
2.7000
5.8710
4.6667
3.2333
2.0000
6.2667
5.1290
3.0645
2.1333
4.7000
2.7097
1.0000
0.0000
5.9677
4.8276
3.2258
2.4667
4.3667
4.6667
3.0968
3.6667
6.3000
6.3103
5.5000
4.5862
3.2581
3.4516
4.0968
4.4516
6.1724
5.9677
6.1935
5.0645
7.1290
5.0645
6.7742
4.1613
5.6857
5.2222
4.6000
4.1429
6.4444
5.8000
5.4706
4.9444
4.6286
4.0571
3.6571
3.0000
6.0556
5.9143
5.4444
4.5714
6.3333
5.3333
4.9429
3.6667
4.8824
4.4857
3.9143
3.7429
4.7500
4.0857
3.2857
2.7429
5.9143
4.8235
3.8788
3.0833
6.1389
5.3235
3.8889
2.5429
6.1667
5.4167
3.3824
1.9714
5.4286
3.3429
2.2222
0.0857
6.2000
5.2000
3.9444
2.1944
4.2571
3.3333
2.8857
2.2000
6.2571
5.4857
4.2222
3.4444
2.9722
3.7143
3.7778
3.8571
6.1429
5.7222
5.9167
4.6857
6.9429
5.3611
6.9444
4.0857
5.6452
5.1290
4.7188
3.9667
6.5806
5.7813
5.4516
4.8065
4.5625
4.2188
3.7742
3.0000
6.6774
6.1563
5.3438
4.6333
6.1563
5.5000
4.5625
3.7097
4.7742
4.5161
4.0000
3.6563
4.9677
4.0625
3.7188
3.0313
5.0313
4.0938
3.0313
2.1250
6.1563
4.7813
3.0938
1.5161
6.0667
5.1875
3.3226
1.6774
6.0938
4.5161
2.9677
0.5313
6.0000
5.9677
4.6875
2.8065
4.7419
3.8750
3.0645
2.5938
6.1290
4.0625
4.2500
3.1613
2.9688
3.7742
4.1935
4.6875
6.7188
5.9063
5.6774
4.5333
6.4375
5.0938
6.0000
4.1935
5.5313
5.0323
4.6563
3.9063
6.0323
5.7742
5.1935
4.8125
4.2258
3.7097
3.4063
2.6774
6.0968
5.9063
5.5625
5.1563
5.9688
5.0968
4.3548
3.4688
4.9375
4.4688
3.7742
3.5313
4.5000
4.0000
3.4375
2.9688
4.9688
3.7667
3.2258
2.3438
6.1250
5.1333
3.3871
1.8750
6.1290
5.2903
3.1563
1.4194
5.5806
4.5938
2.8333
0.7742
5.9677
5.1875
5.1250
4.4375
4.2667
3.8438
3.4063
2.4063
6.3871
5.9000
5.2258
3.9063
2.8387
3.2667
3.9355
4.4194
6.6250
5.8667
6.0625
5.0333
6.4375
5.0000
6.2500
3.6774
5.7714
5.1714
4.7059
4.2571
6.3429
5.9429
5.7941
5.0000
4.4571
3.9429
3.6765
3.0882
5.9706
5.4857
4.8125
4.1176
5.9697
5.3429
4.6765
3.5429
4.8438
4.0882
4.0294
3.2059
5.0571
4.5588
3.6970
3.2941
5.5714
4.6286
3.6571
2.6571
6.6000
5.7059
4.0286
2.0882
6.0571
5.3714
3.6176
2.2353
5.0571
3.3333
1.8571
0.1875
5.4412
4.6571
4.1176
2.4571
4.1143
4.3143
2.9394
2.4412
6.1176
4.8485
3.8000
3.2727
2.5429
3.3824
3.7941
4.4286
6.5882
6.5000
6.5143
5.6286
6.8857
5.3714
6.6765
4.0000
5.2813
5.0000
4.2581
3.9688
6.3438
5.8438
5.1333
4.6875
4.3750
3.8387
3.4333
3.0645
6.1875
5.9375
5.5333
4.9063
6.0000
5.4375
4.6774
3.4333
4.9333
4.5161
4.2258
3.9355
4.7500
4.1563
3.4375
3.1563
5.0645
4.1875
3.4000
2.4063
6.2500
5.6333
3.6774
2.3750
6.0000
4.8065
3.2500
1.3226
5.5938
4.7667
3.0645
0.4516
5.0938
6.2903
6.0968
1.9667
4.2188
3.7188
3.0000
2.9063
6.3226
6.2188
4.2667
3.7188
2.1613
3.1250
3.2581
3.9032
6.3438
5.8667
5.6452
5.3125
6.7097
4.9677
6.1563
4.2903
5.6667
5.1034
4.8333
4.2581
5.9677
5.8065
5.3667
4.9667
4.2414
3.9355
3.2667
2.8000
6.0968
5.6000
5.5333
4.7000
5.7931
5.2000
4.5806
3.5333
4.5667
4.3000
4.0667
3.3667
5.4194
4.6129
4.0000
2.8000
5.4194
4.5161
3.6000
2.2759
6.0323
4.9355
3.5000
2.0968
6.0645
5.5484
3.4839
1.4194
5.8333
4.5161
2.0333
0.0345
6.1613
5.9333
3.9355
2.6667
4.5161
3.9667
3.1333
2.6667
6.2414
5.7419
4.6897
4.3548
2.7742
3.2333
4.0000
4.4839
6.0000
6.0645
4.8000
5.1290
7.1290
4.5484
6.2903
3.4333
5.7188
5.1935
4.7742
4.0645
6.2581
6.0000
5.6452
4.9677
4.3667
4.1290
3.5625
3.0938
6.0313
5.7742
5.2258
4.5806
5.7097
5.6563
4.8065
4.0667
4.9688
4.5313
4.1613
3.6875
4.4375
3.9677
3.6129
2.5161
5.4688
4.9375
4.0000
2.7000
6.5313
5.6875
4.5161
2.8438
6.3438
5.2500
3.8065
2.2500
4.5806
3.3226
2.1290
0.1935
5.9355
3.7188
2.7419
1.5938
4.5313
3.6250
3.1290
3.0000
6.0313
4.4000
5.1250
3.6563
2.4375
3.2188
3.9063
4.2581
6.2813
6.4688
5.3750
6.6875
6.9688
5.0667
6.9688
4.0000
5.1875
4.9677
4.7742
4.2188
6.0000
5.6875
5.4688
4.7742
4.6250
4.0000
3.5313
2.8438
6.1250
6.0000
5.4333
4.9032
6.0968
5.1613
4.3548
3.5938
4.5806
4.5938
4.0323
3.4063
4.8333
3.8387
3.1250
2.7333
5.4063
4.6875
3.5313
2.7500
5.5517
4.7742
3.1935
1.8387
5.8667
5.3438
3.2813
1.2581
5.3226
4.2000
2.4516
0.1613
6.4194
5.9375
3.3226
2.6875
4.0000
3.5625
3.0000
3.1290
6.5313
5.3871
5.0625
4.5000
3.2813
4.2188
4.0645
4.0313
6.0323
6.0625
5.3548
5.6563
7.2188
5.2258
7.2813
3.7742
5.0769
5.0000
4.3600
3.8800
5.8462
5.9231
5.1250
4.7600
4.4000
3.6400
3.3846
2.5385
6.1538
6.1923
5.8800
5.5769
5.9615
5.0385
4.1667
3.4231
4.4000
4.3462
4.1200
3.5000
3.5769
3.5385
3.2800
2.8462
5.6400
4.2400
2.9600
1.7692
5.8462
5.1600
3.6000
1.7600
5.9615
4.8077
2.8462
0.8400
6.4400
6.0769
5.3750
4.7692
5.6667
4.5200
4.5200
4.5385
6.0000
3.9200
4.5600
3.1923
4.6800
4.0769
3.0000
2.3462
2.3600
3.3077
3.8846
4.2800
6.6538
6.2308
5.8462
4.6000
7.2400
5.0000
6.4615
3.5000
