0.9893
0.9793
0.9628
0.9338
0.9971
0.9943
0.9891
0.9793
0.9729
0.9497
0.9098
0.8483
0.9976
0.9952
0.9913
0.9830
0.9932
0.9812
0.9523
0.8879
0.9890
0.9807
0.9615
0.9315
0.9842
0.9789
0.9588
0.9237
0.9844
0.9467
0.8520
0.6846
0.9822
0.9501
0.8744
0.6811
0.9904
0.9719
0.9107
0.8213
0.9923
0.9835
0.9158
0.6504
0.9808
0.9516
0.9125
0.8477
0.9681
0.9037
0.8829
0.9227
0.9834
0.9529
0.9139
0.8646
0.8663
0.9049
0.9375
0.9517
0.9994
0.9968
0.9957
0.9831
0.9857
0.9666
0.9442
0.8383
0.9720
0.9476
0.9065
0.8448
0.9926
0.9854
0.9721
0.9477
0.9310
0.8753
0.7874
0.6772
0.9948
0.9898
0.9802
0.9611
0.9829
0.9538
0.8896
0.7710
0.9696
0.9397
0.8868
0.8081
0.9710
0.9527
0.9443
0.8933
0.9911
0.9715
0.9271
0.8510
0.9669
0.9389
0.8898
0.7969
0.9848
0.9589
0.8969
0.8328
0.9524
0.8617
0.7218
0.6059
0.9512
0.8384
0.7310
0.6187
0.9360
0.8010
0.6744
0.8363
0.9877
0.9661
0.9497
0.9141
0.8744
0.9143
0.9439
0.9642
0.9990
0.9941
0.9928
0.9652
0.9903
0.9773
0.9637
0.8936
0.9657
0.9368
0.8911
0.8254
0.9906
0.9816
0.9652
0.9364
0.9226
0.8623
0.7771
0.6743
0.9952
0.9912
0.9834
0.9685
0.9783
0.9436
0.8716
0.7483
0.9690
0.9434
0.8975
0.8286
0.9610
0.9352
0.9276
0.8859
0.9954
0.9856
0.9618
0.9153
0.9859
0.9717
0.9424
0.8693
0.9913
0.9756
0.9336
0.8643
0.9571
0.9041
0.7968
0.6526
0.9566
0.8652
0.8510
0.8061
0.8839
0.8915
0.6213
0.4302
0.9911
0.9809
0.9696
0.9448
0.8738
0.9302
0.9440
0.9530
0.9990
0.9965
0.9915
0.9805
0.9909
0.9769
0.9645
0.8897
0.9710
0.9463
0.9058
0.8423
0.9922
0.9848
0.9713
0.9457
0.9340
0.8786
0.7998
0.6902
0.9945
0.9898
0.9800
0.9608
0.9819
0.9513
0.8851
0.7622
0.9705
0.9453
0.8958
0.8228
0.9633
0.9496
0.9060
0.8272
0.9944
0.9828
0.9560
0.9077
0.9723
0.9515
0.9164
0.8507
0.9870
0.9658
0.9052
0.8314
0.9203
0.8681
0.7555
0.6216
0.9526
0.9198
0.8251
0.7668
0.8709
0.7922
0.8285
0.5449
0.9923
0.9779
0.9687
0.9420
0.8969
0.9433
0.9675
0.9709
0.9993
0.9955
0.9949
0.9708
0.9888
0.9745
0.9557
0.8801
0.9930
0.9870
0.9764
0.9584
0.9982
0.9964
0.9930
0.9866
0.9859
0.9739
0.9515
0.9163
0.9984
0.9968
0.9937
0.9876
0.9950
0.9865
0.9663
0.9196
0.9918
0.9836
0.9693
0.9446
0.9916
0.9820
0.9592
0.9316
0.9898
0.9643
0.8924
0.7421
0.9917
0.9765
0.9189
0.7563
0.9942
0.9825
0.9439
0.8771
0.9956
0.9900
0.9668
0.8861
0.9934
0.9791
0.9160
0.8847
0.9988
0.9705
0.9031
0.8444
0.9878
0.9628
0.9373
0.8808
0.8917
0.9378
0.9637
0.9821
0.9991
0.9944
0.9932
0.9597
0.9867
0.9629
0.9544
0.8174
0.9868
0.9746
0.9558
0.9234
0.9962
0.9926
0.9860
0.9742
0.9674
0.9387
0.8972
0.8296
0.9978
0.9957
0.9913
0.9844
0.9916
0.9772
0.9437
0.8713
0.9764
0.9553
0.9239
0.8789
0.9851
0.9772
0.9567
0.9257
0.9860
0.9522
0.8681
0.7238
0.9835
0.9560
0.8809
0.7122
0.9914
0.9738
0.9124
0.8149
0.9917
0.9799
0.9060
0.6404
0.9763
0.9635
0.9373
0.8213
0.9852
0.9379
0.8227
0.8022
0.9853
0.9539
0.9218
0.8740
0.8934
0.9371
0.9590
0.9776
0.9990
0.9978
0.9920
0.9882
0.9860
0.9687
0.9507
0.8493
0.9830
0.9682
0.9450
0.9085
0.9953
0.9910
0.9829
0.9682
0.9647
0.9358
0.8899
0.8221
0.9970
0.9943
0.9888
0.9795
0.9884
0.9697
0.9293
0.8508
0.9860
0.9745
0.9525
0.9161
0.9842
0.9642
0.9373
0.8979
0.9954
0.9831
0.9362
0.7723
0.9913
0.9801
0.9498
0.8369
0.9947
0.9846
0.9457
0.8863
0.9807
0.9450
0.8658
0.6631
0.9767
0.9500
0.9178
0.7396
0.9518
0.8836
0.8119
0.6941
0.9907
0.9706
0.9515
0.9227
0.8881
0.9298
0.9572
0.9690
0.9994
0.9966
0.9953
0.9813
0.9866
0.9676
0.9505
0.8428
0.9905
0.9821
0.9673
0.9440
0.9974
0.9949
0.9903
0.9817
0.9784
0.9594
0.9280
0.8813
0.9987
0.9974
0.9948
0.9899
0.9939
0.9832
0.9579
0.9026
0.9880
0.9731
0.9497
0.9152
0.9893
0.9794
0.9621
0.9306
0.9872
0.9560
0.8797
0.7444
0.9861
0.9714
0.9341
0.8122
0.9921
0.9780
0.9361
0.8787
0.9922
0.9823
0.9668
0.8768
0.9967
0.9884
0.9789
0.9219
0.9560
0.9812
0.9260
0.8246
0.9873
0.9667
0.9445
0.9024
0.8885
0.9361
0.9630
0.9754
0.9991
0.9970
0.9913
0.9827
0.9880
0.9645
0.9581
0.8273
0.9729
0.9505
0.9133
0.8596
0.9927
0.9856
0.9727
0.9497
0.9389
0.8922
0.8244
0.7336
0.9975
0.9951
0.9907
0.9827
0.9828
0.9548
0.8962
0.7943
0.9754
0.9554
0.9173
0.8616
0.9750
0.9637
0.9259
0.8747
0.9941
0.9808
0.9436
0.8578
0.9862
0.9745
0.9453
0.8555
0.9907
0.9785
0.9376
0.8815
0.9823
0.9504
0.8678
0.7514
0.9877
0.9682
0.9089
0.8414
0.8943
0.8459
0.7986
0.7822
0.9916
0.9722
0.9550
0.9265
0.8857
0.9353
0.9556
0.9688
0.9996
0.9981
0.9969
0.9906
0.9882
0.9723
0.9553
0.8663
0.9750
0.9534
0.9178
0.8635
0.9932
0.9868
0.9747
0.9534
0.9418
0.8949
0.8248
0.7284
0.9969
0.9940
0.9886
0.9784
0.9843
0.9581
0.9006
0.7936
0.9784
0.9570
0.9213
0.8635
0.9715
0.9395
0.8844
0.8334
0.9936
0.9785
0.9382
0.8560
0.9830
0.9642
0.9191
0.8152
0.9901
0.9742
0.9190
0.8421
0.9716
0.9156
0.8169
0.6738
0.9831
0.9581
0.9042
0.7703
0.8967
0.8297
0.7086
0.7183
0.9885
0.9694
0.9471
0.9178
0.8940
0.9373
0.9577
0.9736
0.9994
0.9982
0.9951
0.9890
0.9882
0.9731
0.9555
0.8714
0.9838
0.9702
0.9484
0.9135
0.9956
0.9915
0.9842
0.9706
0.9634
0.9353
0.8884
0.8215
0.9975
0.9951
0.9906
0.9821
0.9896
0.9725
0.9338
0.8526
0.9817
0.9629
0.9348
0.8880
0.9788
0.9676
0.9414
0.9005
0.9899
0.9665
0.9079
0.8002
0.9816
0.9577
0.9030
0.7767
0.9906
0.9735
0.9214
0.8346
0.9885
0.9745
0.8834
0.7009
0.9919
0.9506
0.9025
0.7845
0.9669
0.8574
0.8475
0.7066
0.9869
0.9608
0.9301
0.8875
0.8919
0.9318
0.9497
0.9627
0.9983
0.9867
0.9894
0.9359
0.9857
0.9663
0.9499
0.8404
0.9737
0.9510
0.9119
0.8551
0.9930
0.9861
0.9731
0.9501
0.9359
0.8857
0.8066
0.7003
0.9953
0.9910
0.9829
0.9685
0.9838
0.9561
0.8948
0.7806
0.9667
0.9345
0.8861
0.8044
0.9692
0.9275
0.9143
0.8601
0.9917
0.9732
0.9311
0.8611
0.9697
0.9396
0.8890
0.8183
0.9873
0.9631
0.8924
0.8162
0.9503
0.8501
0.7725
0.6543
0.9968
0.9125
0.8133
0.8702
0.9388
0.8119
0.6948
0.9287
0.9910
0.9750
0.9542
0.9132
0.8729
0.9166
0.9447
0.9685
0.9993
0.9983
0.9932
0.9919
0.9887
0.9748
0.9565
0.8813
0.9923
0.9848
0.9709
0.9464
0.9980
0.9960
0.9921
0.9845
0.9792
0.9596
0.9260
0.8672
0.9985
0.9970
0.9942
0.9881
0.9953
0.9862
0.9620
0.9022
0.9916
0.9834
0.9683
0.9399
0.9904
0.9783
0.9554
0.8816
0.9816
0.9397
0.8414
0.6803
0.9775
0.9328
0.8367
0.6495
0.9888
0.9659
0.8919
0.7852
0.9956
0.9897
0.9690
0.8251
0.9914
0.9548
0.9649
0.9283
0.9947
0.9426
0.9250
0.8036
0.9837
0.9490
0.9135
0.8449
0.8924
0.9347
0.9566
0.9640
0.9989
0.9954
0.9913
0.9751
0.9868
0.9654
0.9512
0.8329
0.9883
0.9775
0.9590
0.9286
0.9969
0.9939
0.9881
0.9778
0.9742
0.9510
0.9123
0.8528
0.9976
0.9953
0.9910
0.9827
0.9922
0.9785
0.9460
0.8763
0.9855
0.9738
0.9509
0.9097
0.9854
0.9655
0.9297
0.8820
0.9902
0.9671
0.9057
0.7834
0.9811
0.9556
0.8987
0.7703
0.9906
0.9735
0.9188
0.8356
0.9915
0.9769
0.9139
0.7755
0.9980
0.9983
0.9433
0.8559
0.9824
0.9188
0.8753
0.7689
0.9871
0.9595
0.9287
0.8726
0.8967
0.9377
0.9647
0.9734
0.9995
0.9973
0.9954
0.9830
0.9860
0.9654
0.9502
0.8315
0.9726
0.9495
0.9126
0.8574
0.9923
0.9850
0.9719
0.9484
0.9380
0.8877
0.8166
0.7205
0.9961
0.9925
0.9859
0.9742
0.9825
0.9537
0.8924
0.7792
0.9630
0.9296
0.8771
0.8037
0.9627
0.9530
0.9125
0.8375
0.9946
0.9835
0.9573
0.9087
0.9804
0.9631
0.9287
0.8499
0.9889
0.9722
0.9183
0.8477
0.9566
0.9019
0.8028
0.7062
0.9650
0.9216
0.8889
0.7618
0.9113
0.8684
0.7399
0.5453
0.9918
0.9768
0.9650
0.9402
0.8869
0.9235
0.9522
0.9754
0.9983
0.9856
0.9889
0.9126
0.9896
0.9736
0.9607
0.8754
0.9711
0.9461
0.9051
0.8423
0.9923
0.9848
0.9709
0.9463
0.9313
0.8732
0.7944
0.6783
0.9956
0.9916
0.9841
0.9711
0.9823
0.9529
0.8878
0.7654
0.9746
0.9560
0.9167
0.8494
0.9578
0.9156
0.8584
0.7920
0.9918
0.9738
0.9344
0.8721
0.9743
0.9476
0.8955
0.8072
0.9888
0.9665
0.8939
0.8048
0.9621
0.8582
0.7118
0.6118
0.9750
0.9277
0.7920
0.6631
0.8817
0.8992
0.6474
0.7875
0.9878
0.9729
0.9536
0.9232
0.8933
0.9058
0.9239
0.9350
0.9990
0.9976
0.9902
0.9884
0.9874
0.9764
0.9520
0.8893
0.9777
0.9590
0.9305
0.8856
0.9938
0.9881
0.9778
0.9596
0.9501
0.9109
0.8555
0.7735
0.9971
0.9944
0.9892
0.9797
0.9853
0.9621
0.9115
0.8126
0.9711
0.9456
0.9069
0.8457
0.9635
0.9293
0.8974
0.8294
0.9952
0.9840
0.9514
0.8748
0.9832
0.9656
0.9218
0.8184
0.9918
0.9774
0.9294
0.8303
0.9750
0.9170
0.8160
0.6204
0.9773
0.9633
0.8576
0.7210
0.9762
0.8348
0.7074
0.7265
0.9900
0.9729
0.9560
0.9173
0.8908
0.9348
0.9506
0.9693
0.9983
0.9811
0.9905
0.9379
0.9852
0.9695
0.9421
0.8571
0.9858
0.9728
0.9518
0.9162
0.9962
0.9925
0.9857
0.9727
0.9671
0.9386
0.8924
0.8223
0.9977
0.9955
0.9912
0.9830
0.9908
0.9749
0.9379
0.8599
0.9776
0.9600
0.9241
0.8674
0.9798
0.9515
0.9302
0.8871
0.9909
0.9687
0.9044
0.7697
0.9816
0.9529
0.8731
0.7191
0.9906
0.9738
0.9165
0.8243
0.9908
0.9730
0.8883
0.6665
0.9573
0.9533
0.9231
0.7277
0.9656
0.9511
0.8530
0.7425
0.9884
0.9535
0.9241
0.8692
0.8853
0.9308
0.9580
0.9623
0.9988
0.9924
0.9915
0.9429
0.9881
0.9674
0.9562
0.8428
0.9830
0.9682
0.9432
0.9039
0.9954
0.9909
0.9826
0.9677
0.9596
0.9258
0.8757
0.8052
0.9982
0.9965
0.9940
0.9860
0.9894
0.9714
0.9312
0.8522
0.9861
0.9716
0.9505
0.9079
0.9762
0.9620
0.9378
0.8954
0.9891
0.9620
0.8899
0.7445
0.9833
0.9657
0.9274
0.8333
0.9916
0.9767
0.9272
0.8548
0.9871
0.9725
0.9142
0.7848
0.9812
0.9759
0.9397
0.9243
0.9545
0.9340
0.8614
0.7269
0.9893
0.9728
0.9520
0.9297
0.8906
0.9366
0.9591
0.9662
0.9996
0.9983
0.9955
0.9908
0.9882
0.9688
0.9577
0.8490
0.9807
0.9649
0.9378
0.8959
0.9938
0.9879
0.9778
0.9597
0.9587
0.9253
0.8734
0.8003
0.9974
0.9951
0.9907
0.9827
0.9863
0.9632
0.9112
0.8107
0.9305
0.8694
0.7893
0.7025
0.9867
0.9725
0.9578
0.9407
0.9955
0.9855
0.9591
0.9013
0.9920
0.9841
0.9591
0.8841
0.9946
0.9868
0.9647
0.9329
0.9881
0.9592
0.9103
0.8021
0.9997
0.9684
0.9290
0.8435
0.9324
0.9850
0.8668
0.6596
0.9900
0.9687
0.9538
0.9297
0.8787
0.9303
0.9583
0.9751
0.9984
0.9981
0.9913
0.9824
0.9907
0.9773
0.9622
0.8902
0.9775
0.9582
0.9271
0.8807
0.9939
0.9878
0.9773
0.9579
0.9471
0.9066
0.8443
0.7608
0.9981
0.9964
0.9929
0.9867
0.9860
0.9629
0.9134
0.8221
0.9822
0.9674
0.9381
0.8922
0.9729
0.9626
0.9354
0.9132
0.9916
0.9721
0.9206
0.8167
0.9869
0.9714
0.9253
0.7951
0.9914
0.9782
0.9344
0.8666
0.9904
0.9792
0.9192
0.7558
0.9944
0.9783
0.9487
0.7709
0.9562
0.8855
0.7905
0.7894
0.9878
0.9612
0.9360
0.8879
0.8957
0.9381
0.9561
0.9690
0.9992
0.9977
0.9932
0.9870
0.9893
0.9721
0.9603
0.8647
0.9803
0.9629
0.9337
0.8873
0.9947
0.9896
0.9800
0.9627
0.9540
0.9165
0.8566
0.7720
0.9967
0.9936
0.9876
0.9767
0.9876
0.9663
0.9180
0.8232
0.9793
0.9590
0.9250
0.8708
0.9782
0.9590
0.9336
0.8766
0.9895
0.9656
0.9067
0.8013
0.9752
0.9437
0.8821
0.7689
0.9881
0.9668
0.9014
0.8185
0.9844
0.9442
0.8104
0.5956
0.9723
0.9570
0.8977
0.6757
0.9557
0.8950
0.7999
0.7018
0.9865
0.9607
0.9197
0.8798
0.8965
0.9307
0.9561
0.9685
0.9992
0.9964
0.9922
0.9810
0.9886
0.9701
0.9554
0.8570
0.9699
0.9448
0.9048
0.8448
0.9917
0.9838
0.9697
0.9441
0.9351
0.8845
0.8095
0.7125
0.9973
0.9948
0.9899
0.9807
0.9806
0.9492
0.8838
0.7694
0.9748
0.9514
0.9116
0.8475
0.9599
0.9312
0.8977
0.8491
0.9965
0.9884
0.9653
0.9136
0.9869
0.9758
0.9530
0.8787
0.9924
0.9804
0.9392
0.8703
0.9687
0.9311
0.8729
0.7461
0.9964
0.9390
0.8889
0.8233
0.9345
0.8664
0.7084
0.6477
0.9937
0.9841
0.9708
0.9522
0.8923
0.9355
0.9524
0.9586
0.9990
0.9981
0.9900
0.9906
0.9884
0.9731
0.9564
0.8703
0.9841
0.9697
0.9456
0.9066
0.9957
0.9914
0.9838
0.9697
0.9649
0.9338
0.8859
0.8098
0.9975
0.9951
0.9905
0.9819
0.9894
0.9715
0.9307
0.8486
0.9848
0.9701
0.9444
0.8981
0.9796
0.9561
0.9196
0.8166
0.9918
0.9720
0.9182
0.8103
0.9841
0.9621
0.9084
0.7819
0.9914
0.9749
0.9209
0.8369
0.9884
0.9650
0.8621
0.6229
0.9907
0.9721
0.9070
0.7053
0.9017
0.8580
0.7631
0.8285
0.9896
0.9692
0.9451
0.9077
0.8918
0.9212
0.9361
0.9439
0.9993
0.9962
0.9945
0.9803
0.9864
0.9679
0.9446
0.8459
0.9842
0.9711
0.9506
0.9197
0.9954
0.9911
0.9835
0.9700
0.9652
0.9374
0.8984
0.8425
0.9978
0.9957
0.9916
0.9838
0.9896
0.9737
0.9405
0.8772
0.9824
0.9677
0.9386
0.9004
0.9753
0.9670
0.9500
0.9280
0.9829
0.9455
0.8613
0.7206
0.9972
0.9916
0.9649
0.8613
0.9944
0.9831
0.9517
0.8698
0.9986
0.9965
0.9945
0.9844
0.9956
0.9769
0.9668
0.9554
0.9940
0.9726
0.9889
0.9613
0.9873
0.9784
0.9610
0.9462
0.8817
0.9165
0.9362
0.9589
0.9990
0.9907
0.9921
0.9597
0.9921
0.9690
0.9722
0.8507
